STA 210 - Spring 2022 - SLR: Prediction + model evaluation
…
Suppose that an analyst working for LEAD is interested in the relationship between uninsurance and high school graduation rates in NC counties.

What type of visualization should the analyst make to examine the relationship between these two variables?

Data prep

county_2019_nc <- county_2019 %>%
  as_tibble() %>%
  filter(state == "North Carolina") %>%
  select(name, hs_grad, uninsured)

county_2019_nc

# A tibble: 100 × 3
   name             hs_grad uninsured
   <chr>              <dbl>     <dbl>
 1 Alamance County     86.3      11.2
 2 Alexander County    82.4       8.9
 3 Alleghany County    77.5      11.3
 4 Anson County        80.7      11.1
 5 Ashe County         85.1      12.6
 6 Avery County        83.6      15.9
 7 Beaufort County     87.7      12  
 8 Bertie County       78.4      11.9
 9 Bladen County       81.3      12.9
10 Brunswick County    91.3       9.8
# … with 90 more rows
…
# A tibble: 2 × 5
  term        estimate std.error statistic  p.value
  <chr>          <dbl>     <dbl>     <dbl>    <dbl>
1 (Intercept)   33.9      3.99        8.50 2.12e-13
2 hs_grad       -0.262    0.0468     -5.61 1.88e- 7

Augmenting the data

With augment() to add columns for predicted values (.fitted), residuals (.resid), etc.:

nc_aug <- augment(nc_fit$fit)
nc_aug

# A tibble: 100 × 8
   uninsured hs_grad .fitted  .resid   .hat .sigma    .cooksd .std.resid
       <dbl>   <dbl>   <dbl>   <dbl>  <dbl>  <dbl>      <dbl>      <dbl>
 1      11.2    86.3   11.3  -0.0633 0.0107   2.10 0.00000501    -0.0305
 2       8.9    82.4   12.3  -3.39   0.0138   2.07 0.0186        -1.63  
 3      11.3    77.5   13.6  -2.27   0.0393   2.09 0.0252        -1.11  
 4      11.1    80.7   12.7  -1.63   0.0199   2.09 0.00633       -0.790 
 5      12.6    85.1   11.6   1.02   0.0100   2.10 0.00122        0.492 
 6      15.9    83.6   12.0   3.93   0.0112   2.06 0.0203         1.89  
 7      12      87.7   10.9   1.10   0.0133   2.10 0.00191        0.532 
 8      11.9    78.4   13.3  -1.44   0.0328   2.09 0.00830       -0.700 
 9      12.9    81.3   12.6   0.324  0.0174   2.10 0.000218       0.157 
10       9.8    91.3    9.95 -0.151  0.0291   2.10 0.0000806     -0.0734
# … with 90 more rows
…
