STA 210 - Spring 2022 - Cross validation
…
Data & goal

Data: The data come from the shrute package, and has been transformed using instructions from Lab 4

Goal: Predict imdb_rating from other variables in the dataset

office_episodes <- read_csv(here::here("slides", "data/office_episodes.csv"))
office_episodes

# A tibble: 186 × 14
   season episode episode_name      imdb_rating total_votes air_date   lines_jim
    <dbl>   <dbl> <chr>                   <dbl>       <dbl> <date>         <dbl>
 1      1       1 Pilot                     7.6        3706 2005-03-24    0.157 
 2      1       2 Diversity Day             8.3        3566 2005-03-29    0.123 
 3      1       3 Health Care               7.9        2983 2005-04-05    0.172 
 4      1       4 The Alliance              8.1        2886 2005-04-12    0.202 
 5      1       5 Basketball                8.4        3179 2005-04-19    0.0913
 6      1       6 Hot Girl                  7.8        2852 2005-04-26    0.159 
 7      2       1 The Dundies               8.7        3213 2005-09-20    0.125 
 8      2       2 Sexual Harassment         8.2        2736 2005-09-27    0.0565
 9      2       3 Office Olympics           8.4        2742 2005-10-04    0.196 
10      2       4 The Fire                  8.4        2713 2005-10-11    0.160 
# … with 176 more rows, and 7 more variables: lines_pam <dbl>,
#   lines_michael <dbl>, lines_dwight <dbl>, halloween <chr>, valentine <chr>,
#   christmas <chr>, michael <chr>
…
