STA 210 - Spring 2022 - LR: Prediction / classification
…
Make predictions

Make predictions for test data

email_pred <- predict(email_fit, email_test, type = "prob") %>% 
  bind_cols(email_test) 
email_pred

# A tibble: 981 × 23
   .pred_0  .pred_1 spam  to_multiple from     cc sent_email time               
     <dbl>    <dbl> <fct> <fct>       <fct> <int> <fct>      <dttm>             
 1   0.962 0.0376   0     0           1         0 0          2012-01-01 02:03:59
 2   0.995 0.00461  0     1           1         0 1          2012-01-01 12:55:06
 3   0.999 0.00127  0     0           1         1 1          2012-01-01 14:38:32
 4   0.997 0.00281  0     0           1         2 0          2012-01-01 18:32:53
 5   0.987 0.0128   0     0           1         0 0          2012-01-02 00:42:16
 6   0.999 0.000886 0     0           1         1 0          2012-01-02 10:12:51
 7   0.994 0.00633  0     0           1         4 0          2012-01-02 11:45:36
 8   0.851 0.149    0     0           1         0 0          2012-01-02 16:55:03
 9   0.968 0.0318   0     0           1         0 0          2012-01-02 20:07:17
10   0.997 0.00277  0     0           1         0 1          2012-01-02 23:34:50
# … with 971 more rows, and 15 more variables: image <dbl>, attach <dbl>,
#   dollar <dbl>, winner <fct>, inherit <dbl>, viagra <dbl>, password <dbl>,
#   num_char <dbl>, line_breaks <int>, format <fct>, re_subj <fct>,
#   exclaim_subj <dbl>, urgent_subj <fct>, exclaim_mess <dbl>, number <fct>

A closer look at predictions

Which of the following 10 emails will be misclassified?

email_pred %>%
  arrange(desc(.pred_1)) %>%
  select(contains("pred"), spam)

# A tibble: 981 × 3
   .pred_0 .pred_1 spam 
     <dbl>   <dbl> <fct>
 1  0.0223   0.978 1    
 2  0.107    0.893 0    
 3  0.109    0.891 1    
 4  0.140    0.860 1    
 5  0.149    0.851 0    
 6  0.163    0.837 1    
 7  0.197    0.803 0    
 8  0.207    0.793 0    
 9  0.235    0.765 1    
10  0.240    0.760 1    
# … with 971 more rows
…
+ Originally developed for operators of military radar receivers, hence the name.

ROC curve, under the hood

email_pred %>%
  roc_curve(
    truth = spam,
    .pred_1,
    event_level = "second"
  )

# A tibble: 981 × 3
    .threshold specificity sensitivity
         <dbl>       <dbl>       <dbl>
 1 -Inf            0                 1
 2    1.31e-13     0                 1
 3    2.63e- 8     0.00111           1
 4    5.75e- 6     0.00223           1
 5    1.36e- 5     0.00334           1
 6    2.33e- 5     0.00446           1
 7    2.74e- 5     0.00557           1
 8    3.28e- 5     0.00669           1
 9    4.59e- 5     0.00780           1
10    4.78e- 5     0.00892           1
# … with 971 more rows
…
