STA 210 - Spring 2022 - Movie budgets and revenues
…
library(tidyverse) # for data analysis and visualisation
library(scales)    # for pretty axis labels
library(DT)        # for interactive table

Data

The movies data set includes basic information about each movie including budget, genre, movie studio, director, etc. A full list of the variables may be found here.

movies <- read_csv("https://raw.githubusercontent.com/danielgrijalva/movie-stats/master/movies.csv")

View the first 10 rows of data.

movies

# A tibble: 7,668 × 15
   name   rating genre  year released score  votes director writer star  country
   <chr>  <chr>  <chr> <dbl> <chr>    <dbl>  <dbl> <chr>    <chr>  <chr> <chr>  
 1 The S… R      Drama  1980 June 13…   8.4 9.27e5 Stanley… Steph… Jack… United…
 2 The B… R      Adve…  1980 July 2,…   5.8 6.5 e4 Randal … Henry… Broo… United…
 3 Star … PG     Acti…  1980 June 20…   8.7 1.2 e6 Irvin K… Leigh… Mark… United…
 4 Airpl… PG     Come…  1980 July 2,…   7.7 2.21e5 Jim Abr… Jim A… Robe… United…
 5 Caddy… R      Come…  1980 July 25…   7.3 1.08e5 Harold … Brian… Chev… United…
 6 Frida… R      Horr…  1980 May 9, …   6.4 1.23e5 Sean S.… Victo… Bets… United…
 7 The B… R      Acti…  1980 June 20…   7.9 1.88e5 John La… Dan A… John… United…
 8 Ragin… R      Biog…  1980 Decembe…   8.2 3.3 e5 Martin … Jake … Robe… United…
 9 Super… PG     Acti…  1980 June 19…   6.8 1.01e5 Richard… Jerry… Gene… United…
10 The L… R      Biog…  1980 May 16,…   7   1   e4 Walter … Bill … Davi… United…
# … with 7,658 more rows, and 4 more variables: budget <dbl>, gross <dbl>,
#   company <chr>, runtime <dbl>
…
