STA 210 - Spring 2022 - AE 10: Flight delays
…
Create a workflow that uses flights_rec1 and the model you specified.

flight_wflow1 <- workflow() %>%
  add_recipe(flights_rec1) %>%
  add_model(flight_spec)

Fit the this model to the training data using your workflow and display a tidy summary of the model fit.

flight_fit1 <- flight_wflow1 %>%
  fit(data = flight_train)

tidy(flight_fit1)

# A tibble: 119 × 5
   term          estimate   std.error statistic   p.value
   <chr>            <dbl>       <dbl>     <dbl>     <dbl>
 1 (Intercept)  13.3      287.          0.0464  9.63e-  1
 2 dep_time     -0.00164    0.0000504 -32.6     1.04e-233
 3 air_time     -0.0349     0.00179   -19.5     1.75e- 84
 4 distance      0.00533    0.00523     1.02    3.08e-  1
 5 date          0.000227   0.000198    1.15    2.51e-  1
 6 origin_JFK    0.0830     0.102       0.815   4.15e-  1
 7 origin_LGA   -0.0360     0.0983     -0.366   7.14e-  1
 8 dest_ACK    -12.4      287.         -0.0434  9.65e-  1
 9 dest_ALB    -12.4      287.         -0.0433  9.65e-  1
10 dest_ANC     -3.75     928.         -0.00404 9.97e-  1
# … with 109 more rows
…
