STA 210 - Spring 2022 - Lab 2 - College scorecard
…
Finally, we fit our model to each of our 1000 permuted datasets

set.seed(1234)

perm_fits <- scorecard %>%
  specify(cost ~ admrate) %>%
  hypothesize(null = "independence") %>%
  generate(reps = 1000, type = "permute") %>%
  fit()

The resulting dataset perm_fits has nrow(perm_fits) and ncol(perm_fits) columns. The first column, replicate indicates the replicate number of the dataset the models were fit to; the values in this column range between 1 and 1000. The second column, term, tells us which term (intercept of the model or slope of admrate) the estimate value in the third column is for.

perm_fits

# A tibble: 2,000 × 3
# Groups:   replicate [1,000]
   replicate term      estimate
       <int> <chr>        <dbl>
 1         1 intercept  36857. 
 2         1 admrate     -781. 
 3         2 intercept  35901. 
 4         2 admrate      643. 
 5         3 intercept  36608. 
 6         3 admrate     -411. 
 7         4 intercept  35831. 
 8         4 admrate      746. 
 9         5 intercept  36367. 
10         5 admrate      -51.7
# … with 1,990 more rows
…
